\beamer@endinputifotherversion {3.36pt}
\select@language {portuguese}
\beamer@sectionintoc {1}{MODELO TE\IeC {\'O}RICO}{3}{0}{1}
\beamer@sectionintoc {2}{AN\IeC {\'A}LISE HIST\IeC {\'O}RICA}{8}{0}{2}
